<?xml version='1.0' encoding='utf-8'?>
<graphml xmlns="http://graphml.graphdrawing.org/xmlns" xmlns:xsi="http://www.w3.org/2001/XMLSchema-instance" xsi:schemaLocation="http://graphml.graphdrawing.org/xmlns http://graphml.graphdrawing.org/xmlns/1.0/graphml.xsd">
  <key attr.name="mag" attr.type="double" for="node" id="d0" />
  <graph edgedefault="undirected">
    <node id="0">
      <data key="d0">8718.0</data>
    </node>
    <node id="1">
      <data key="d0">10407.0</data>
    </node>
    <node id="2">
      <data key="d0">13942.0</data>
    </node>
    <node id="3">
      <data key="d0">11887.0</data>
    </node>
    <node id="4">
      <data key="d0">13391.0</data>
    </node>
    <node id="5">
      <data key="d0">13015.0</data>
    </node>
    <node id="6">
      <data key="d0">10974.0</data>
    </node>
    <node id="7">
      <data key="d0">11319.0</data>
    </node>
    <node id="8">
      <data key="d0">12541.0</data>
    </node>
    <node id="9">
      <data key="d0">10216.0</data>
    </node>
    <node id="10">
      <data key="d0">9958.0</data>
    </node>
    <node id="11">
      <data key="d0">9950.0</data>
    </node>
    <node id="12">
      <data key="d0">9553.0</data>
    </node>
    <node id="13">
      <data key="d0">7093.0</data>
    </node>
    <node id="14">
      <data key="d0">8042.0</data>
    </node>
    <node id="15">
      <data key="d0">9324.0</data>
    </node>
    <node id="16">
      <data key="d0">9027.0</data>
    </node>
    <node id="17">
      <data key="d0">11794.0</data>
    </node>
    <node id="18">
      <data key="d0">13440.0</data>
    </node>
    <node id="19">
      <data key="d0">11717.0</data>
    </node>
    <node id="20">
      <data key="d0">14466.0</data>
    </node>
    <node id="21">
      <data key="d0">15315.0</data>
    </node>
    <node id="22">
      <data key="d0">14271.0</data>
    </node>
    <node id="23">
      <data key="d0">14546.0</data>
    </node>
    <node id="24">
      <data key="d0">14197.0</data>
    </node>
    <node id="25">
      <data key="d0">12181.0</data>
    </node>
    <node id="26">
      <data key="d0">9744.0</data>
    </node>
    <node id="27">
      <data key="d0">11077.0</data>
    </node>
    <node id="28">
      <data key="d0">10939.0</data>
    </node>
    <node id="29">
      <data key="d0">12056.0</data>
    </node>
    <node id="30">
      <data key="d0">12301.0</data>
    </node>
    <node id="31">
      <data key="d0">9722.0</data>
    </node>
    <node id="32">
      <data key="d0">10766.0</data>
    </node>
    <node id="33">
      <data key="d0">8709.0</data>
    </node>
    <node id="34">
      <data key="d0">9095.0</data>
    </node>
    <node id="35">
      <data key="d0">10922.0</data>
    </node>
    <node id="36">
      <data key="d0">9495.0</data>
    </node>
    <node id="37">
      <data key="d0">12956.0</data>
    </node>
    <node id="38">
      <data key="d0">12377.0</data>
    </node>
    <node id="39">
      <data key="d0">12742.0</data>
    </node>
    <node id="40">
      <data key="d0">11099.0</data>
    </node>
    <node id="41">
      <data key="d0">8792.0</data>
    </node>
    <node id="42">
      <data key="d0">12421.0</data>
    </node>
    <node id="43">
      <data key="d0">10708.0</data>
    </node>
    <node id="44">
      <data key="d0">8318.0</data>
    </node>
    <node id="45">
      <data key="d0">12512.0</data>
    </node>
    <node id="46">
      <data key="d0">10277.0</data>
    </node>
    <node id="47">
      <data key="d0">11157.0</data>
    </node>
    <node id="48">
      <data key="d0">9494.0</data>
    </node>
    <edge source="0" target="1" />
    <edge source="0" target="2" />
    <edge source="1" target="2" />
    <edge source="2" target="3" />
    <edge source="2" target="4" />
    <edge source="2" target="8" />
    <edge source="2" target="17" />
    <edge source="2" target="18" />
    <edge source="2" target="20" />
    <edge source="2" target="21" />
    <edge source="3" target="4" />
    <edge source="4" target="5" />
    <edge source="4" target="8" />
    <edge source="4" target="17" />
    <edge source="4" target="18" />
    <edge source="4" target="20" />
    <edge source="4" target="21" />
    <edge source="5" target="6" />
    <edge source="5" target="7" />
    <edge source="5" target="8" />
    <edge source="5" target="17" />
    <edge source="5" target="18" />
    <edge source="5" target="20" />
    <edge source="5" target="21" />
    <edge source="6" target="7" />
    <edge source="6" target="8" />
    <edge source="7" target="8" />
    <edge source="8" target="9" />
    <edge source="8" target="10" />
    <edge source="8" target="11" />
    <edge source="8" target="12" />
    <edge source="8" target="15" />
    <edge source="8" target="16" />
    <edge source="8" target="17" />
    <edge source="8" target="18" />
    <edge source="8" target="20" />
    <edge source="8" target="21" />
    <edge source="9" target="10" />
    <edge source="9" target="11" />
    <edge source="9" target="17" />
    <edge source="9" target="18" />
    <edge source="9" target="20" />
    <edge source="9" target="21" />
    <edge source="10" target="11" />
    <edge source="10" target="17" />
    <edge source="10" target="18" />
    <edge source="10" target="20" />
    <edge source="10" target="21" />
    <edge source="11" target="12" />
    <edge source="11" target="15" />
    <edge source="11" target="17" />
    <edge source="11" target="18" />
    <edge source="11" target="20" />
    <edge source="11" target="21" />
    <edge source="12" target="13" />
    <edge source="12" target="14" />
    <edge source="12" target="15" />
    <edge source="12" target="17" />
    <edge source="12" target="18" />
    <edge source="13" target="14" />
    <edge source="13" target="15" />
    <edge source="13" target="17" />
    <edge source="13" target="18" />
    <edge source="14" target="15" />
    <edge source="14" target="18" />
    <edge source="15" target="16" />
    <edge source="15" target="17" />
    <edge source="15" target="18" />
    <edge source="16" target="17" />
    <edge source="17" target="18" />
    <edge source="18" target="19" />
    <edge source="18" target="20" />
    <edge source="18" target="21" />
    <edge source="19" target="20" />
    <edge source="20" target="21" />
    <edge source="21" target="22" />
    <edge source="21" target="23" />
    <edge source="21" target="24" />
    <edge source="21" target="30" />
    <edge source="21" target="35" />
    <edge source="21" target="37" />
    <edge source="21" target="39" />
    <edge source="21" target="42" />
    <edge source="21" target="45" />
    <edge source="22" target="23" />
    <edge source="23" target="24" />
    <edge source="23" target="30" />
    <edge source="23" target="35" />
    <edge source="23" target="37" />
    <edge source="23" target="39" />
    <edge source="23" target="42" />
    <edge source="23" target="45" />
    <edge source="24" target="25" />
    <edge source="24" target="27" />
    <edge source="24" target="28" />
    <edge source="24" target="29" />
    <edge source="24" target="30" />
    <edge source="24" target="35" />
    <edge source="24" target="37" />
    <edge source="24" target="45" />
    <edge source="25" target="26" />
    <edge source="25" target="27" />
    <edge source="25" target="28" />
    <edge source="25" target="29" />
    <edge source="25" target="30" />
    <edge source="25" target="37" />
    <edge source="26" target="27" />
    <edge source="27" target="28" />
    <edge source="27" target="29" />
    <edge source="28" target="29" />
    <edge source="29" target="30" />
    <edge source="30" target="31" />
    <edge source="30" target="32" />
    <edge source="30" target="35" />
    <edge source="30" target="37" />
    <edge source="31" target="32" />
    <edge source="32" target="33" />
    <edge source="32" target="34" />
    <edge source="32" target="35" />
    <edge source="32" target="37" />
    <edge source="33" target="34" />
    <edge source="33" target="35" />
    <edge source="34" target="35" />
    <edge source="35" target="36" />
    <edge source="35" target="37" />
    <edge source="36" target="37" />
    <edge source="37" target="38" />
    <edge source="37" target="39" />
    <edge source="37" target="42" />
    <edge source="37" target="45" />
    <edge source="38" target="39" />
    <edge source="39" target="40" />
    <edge source="39" target="42" />
    <edge source="39" target="45" />
    <edge source="40" target="41" />
    <edge source="40" target="42" />
    <edge source="41" target="42" />
    <edge source="42" target="43" />
    <edge source="42" target="45" />
    <edge source="43" target="44" />
    <edge source="43" target="45" />
    <edge source="44" target="45" />
    <edge source="45" target="46" />
    <edge source="45" target="47" />
    <edge source="46" target="47" />
    <edge source="47" target="48" />
  </graph>
</graphml>
