<?xml version='1.0' encoding='utf-8'?>
<graphml xmlns="http://graphml.graphdrawing.org/xmlns" xmlns:xsi="http://www.w3.org/2001/XMLSchema-instance" xsi:schemaLocation="http://graphml.graphdrawing.org/xmlns http://graphml.graphdrawing.org/xmlns/1.0/graphml.xsd">
  <key attr.name="mag" attr.type="double" for="node" id="d0" />
  <graph edgedefault="undirected">
    <node id="0">
      <data key="d0">0.0</data>
    </node>
    <node id="1">
      <data key="d0">0.0</data>
    </node>
    <node id="2">
      <data key="d0">0.0</data>
    </node>
    <node id="3">
      <data key="d0">0.0</data>
    </node>
    <node id="4">
      <data key="d0">0.0</data>
    </node>
    <node id="5">
      <data key="d0">1.0</data>
    </node>
    <node id="6">
      <data key="d0">0.0</data>
    </node>
    <node id="7">
      <data key="d0">0.0</data>
    </node>
    <node id="8">
      <data key="d0">0.0</data>
    </node>
    <node id="9">
      <data key="d0">0.0</data>
    </node>
    <node id="10">
      <data key="d0">0.0</data>
    </node>
    <node id="11">
      <data key="d0">0.0</data>
    </node>
    <node id="12">
      <data key="d0">0.0</data>
    </node>
    <node id="13">
      <data key="d0">1.0</data>
    </node>
    <node id="14">
      <data key="d0">0.0</data>
    </node>
    <node id="15">
      <data key="d0">0.0</data>
    </node>
    <node id="16">
      <data key="d0">0.0</data>
    </node>
    <node id="17">
      <data key="d0">0.0</data>
    </node>
    <node id="18">
      <data key="d0">0.0</data>
    </node>
    <node id="19">
      <data key="d0">1.0</data>
    </node>
    <node id="20">
      <data key="d0">0.0</data>
    </node>
    <node id="21">
      <data key="d0">0.0</data>
    </node>
    <node id="22">
      <data key="d0">0.0</data>
    </node>
    <node id="23">
      <data key="d0">0.0</data>
    </node>
    <node id="24">
      <data key="d0">0.0</data>
    </node>
    <node id="25">
      <data key="d0">0.0</data>
    </node>
    <node id="26">
      <data key="d0">0.0</data>
    </node>
    <node id="27">
      <data key="d0">2.0</data>
    </node>
    <node id="28">
      <data key="d0">0.0</data>
    </node>
    <node id="29">
      <data key="d0">0.0</data>
    </node>
    <node id="30">
      <data key="d0">0.0</data>
    </node>
    <node id="31">
      <data key="d0">0.0</data>
    </node>
    <node id="32">
      <data key="d0">0.0</data>
    </node>
    <node id="33">
      <data key="d0">0.0</data>
    </node>
    <node id="34">
      <data key="d0">0.0</data>
    </node>
    <node id="35">
      <data key="d0">0.0</data>
    </node>
    <node id="36">
      <data key="d0">1.0</data>
    </node>
    <node id="37">
      <data key="d0">0.0</data>
    </node>
    <node id="38">
      <data key="d0">0.0</data>
    </node>
    <node id="39">
      <data key="d0">0.0</data>
    </node>
    <node id="40">
      <data key="d0">0.0</data>
    </node>
    <node id="41">
      <data key="d0">2.0</data>
    </node>
    <node id="42">
      <data key="d0">2.0</data>
    </node>
    <node id="43">
      <data key="d0">0.0</data>
    </node>
    <node id="44">
      <data key="d0">0.0</data>
    </node>
    <node id="45">
      <data key="d0">0.0</data>
    </node>
    <node id="46">
      <data key="d0">0.0</data>
    </node>
    <node id="47">
      <data key="d0">0.0</data>
    </node>
    <node id="48">
      <data key="d0">1.0</data>
    </node>
    <edge source="0" target="1" />
    <edge source="0" target="2" />
    <edge source="0" target="3" />
    <edge source="0" target="4" />
    <edge source="0" target="5" />
    <edge source="1" target="2" />
    <edge source="1" target="3" />
    <edge source="1" target="4" />
    <edge source="1" target="5" />
    <edge source="2" target="3" />
    <edge source="2" target="4" />
    <edge source="2" target="5" />
    <edge source="3" target="4" />
    <edge source="3" target="5" />
    <edge source="4" target="5" />
    <edge source="5" target="6" />
    <edge source="5" target="7" />
    <edge source="5" target="8" />
    <edge source="5" target="9" />
    <edge source="5" target="10" />
    <edge source="5" target="11" />
    <edge source="5" target="12" />
    <edge source="5" target="13" />
    <edge source="5" target="19" />
    <edge source="5" target="27" />
    <edge source="6" target="7" />
    <edge source="6" target="8" />
    <edge source="6" target="9" />
    <edge source="6" target="10" />
    <edge source="6" target="11" />
    <edge source="6" target="12" />
    <edge source="6" target="13" />
    <edge source="7" target="8" />
    <edge source="7" target="9" />
    <edge source="7" target="10" />
    <edge source="7" target="11" />
    <edge source="7" target="12" />
    <edge source="7" target="13" />
    <edge source="8" target="9" />
    <edge source="8" target="10" />
    <edge source="8" target="11" />
    <edge source="8" target="12" />
    <edge source="8" target="13" />
    <edge source="9" target="10" />
    <edge source="9" target="11" />
    <edge source="9" target="12" />
    <edge source="9" target="13" />
    <edge source="10" target="11" />
    <edge source="10" target="12" />
    <edge source="10" target="13" />
    <edge source="11" target="12" />
    <edge source="11" target="13" />
    <edge source="12" target="13" />
    <edge source="13" target="14" />
    <edge source="13" target="15" />
    <edge source="13" target="16" />
    <edge source="13" target="17" />
    <edge source="13" target="18" />
    <edge source="13" target="19" />
    <edge source="13" target="27" />
    <edge source="14" target="15" />
    <edge source="14" target="16" />
    <edge source="14" target="17" />
    <edge source="14" target="18" />
    <edge source="14" target="19" />
    <edge source="15" target="16" />
    <edge source="15" target="17" />
    <edge source="15" target="18" />
    <edge source="15" target="19" />
    <edge source="16" target="17" />
    <edge source="16" target="18" />
    <edge source="16" target="19" />
    <edge source="17" target="18" />
    <edge source="17" target="19" />
    <edge source="18" target="19" />
    <edge source="19" target="20" />
    <edge source="19" target="21" />
    <edge source="19" target="22" />
    <edge source="19" target="23" />
    <edge source="19" target="24" />
    <edge source="19" target="25" />
    <edge source="19" target="26" />
    <edge source="19" target="27" />
    <edge source="20" target="21" />
    <edge source="20" target="22" />
    <edge source="20" target="23" />
    <edge source="20" target="24" />
    <edge source="20" target="25" />
    <edge source="20" target="26" />
    <edge source="20" target="27" />
    <edge source="21" target="22" />
    <edge source="21" target="23" />
    <edge source="21" target="24" />
    <edge source="21" target="25" />
    <edge source="21" target="26" />
    <edge source="21" target="27" />
    <edge source="22" target="23" />
    <edge source="22" target="24" />
    <edge source="22" target="25" />
    <edge source="22" target="26" />
    <edge source="22" target="27" />
    <edge source="23" target="24" />
    <edge source="23" target="25" />
    <edge source="23" target="26" />
    <edge source="23" target="27" />
    <edge source="24" target="25" />
    <edge source="24" target="26" />
    <edge source="24" target="27" />
    <edge source="25" target="26" />
    <edge source="25" target="27" />
    <edge source="26" target="27" />
    <edge source="27" target="28" />
    <edge source="27" target="29" />
    <edge source="27" target="30" />
    <edge source="27" target="31" />
    <edge source="27" target="32" />
    <edge source="27" target="33" />
    <edge source="27" target="34" />
    <edge source="27" target="35" />
    <edge source="27" target="36" />
    <edge source="27" target="41" />
    <edge source="27" target="42" />
    <edge source="28" target="29" />
    <edge source="28" target="30" />
    <edge source="28" target="31" />
    <edge source="28" target="32" />
    <edge source="28" target="33" />
    <edge source="28" target="34" />
    <edge source="28" target="35" />
    <edge source="28" target="36" />
    <edge source="28" target="41" />
    <edge source="29" target="30" />
    <edge source="29" target="31" />
    <edge source="29" target="32" />
    <edge source="29" target="33" />
    <edge source="29" target="34" />
    <edge source="29" target="35" />
    <edge source="29" target="36" />
    <edge source="29" target="41" />
    <edge source="30" target="31" />
    <edge source="30" target="32" />
    <edge source="30" target="33" />
    <edge source="30" target="34" />
    <edge source="30" target="35" />
    <edge source="30" target="36" />
    <edge source="30" target="41" />
    <edge source="31" target="32" />
    <edge source="31" target="33" />
    <edge source="31" target="34" />
    <edge source="31" target="35" />
    <edge source="31" target="36" />
    <edge source="31" target="41" />
    <edge source="32" target="33" />
    <edge source="32" target="34" />
    <edge source="32" target="35" />
    <edge source="32" target="36" />
    <edge source="33" target="34" />
    <edge source="33" target="35" />
    <edge source="33" target="36" />
    <edge source="34" target="35" />
    <edge source="34" target="36" />
    <edge source="35" target="36" />
    <edge source="36" target="37" />
    <edge source="36" target="38" />
    <edge source="36" target="39" />
    <edge source="36" target="40" />
    <edge source="36" target="41" />
    <edge source="37" target="38" />
    <edge source="37" target="39" />
    <edge source="37" target="40" />
    <edge source="37" target="41" />
    <edge source="38" target="39" />
    <edge source="38" target="40" />
    <edge source="38" target="41" />
    <edge source="39" target="40" />
    <edge source="39" target="41" />
    <edge source="40" target="41" />
    <edge source="41" target="42" />
    <edge source="42" target="43" />
    <edge source="42" target="44" />
    <edge source="42" target="45" />
    <edge source="42" target="46" />
    <edge source="42" target="47" />
    <edge source="42" target="48" />
    <edge source="43" target="44" />
    <edge source="43" target="45" />
    <edge source="43" target="46" />
    <edge source="43" target="47" />
    <edge source="43" target="48" />
    <edge source="44" target="45" />
    <edge source="44" target="46" />
    <edge source="44" target="47" />
    <edge source="44" target="48" />
    <edge source="45" target="46" />
    <edge source="45" target="47" />
    <edge source="45" target="48" />
    <edge source="46" target="47" />
    <edge source="46" target="48" />
    <edge source="47" target="48" />
  </graph>
</graphml>
