\relax 
\providecommand\hyper@newdestlabel[2]{}
\providecommand\HyperFirstAtBeginDocument{\AtBeginDocument}
\HyperFirstAtBeginDocument{\ifx\hyper@anchor\@undefined
\global\let\oldcontentsline\contentsline
\gdef\contentsline#1#2#3#4{\oldcontentsline{#1}{#2}{#3}}
\global\let\oldnewlabel\newlabel
\gdef\newlabel#1#2{\newlabelxx{#1}#2}
\gdef\newlabelxx#1#2#3#4#5#6{\oldnewlabel{#1}{{#2}{#3}}}
\AtEndDocument{\ifx\hyper@anchor\@undefined
\let\contentsline\oldcontentsline
\let\newlabel\oldnewlabel
\fi}
\fi}
\global\let\hyper@last\relax 
\gdef\HyperFirstAtBeginDocument#1{#1}
\providecommand\HyField@AuxAddToFields[1]{}
\providecommand\HyField@AuxAddToCoFields[2]{}
\@nameuse{bbl@beforestart}
\bibstyle{unsrt}
\providecommand \oddpage@label [2]{}
\babel@aux{nil}{}
\citation{martinez2014}
\citation{perez2010}
\citation{semarnat}
\citation{cisneros}
\citation{sectoralimentario}
\citation{anuariopesca2017}
\citation{biogob}
\citation{anuariopesca2017}
\citation{meinshausen2009}
\citation{fao2015}
\citation{noaa2019}
\citation{uhrin2016}
\@writefile{toc}{\contentsline {section}{\numberline {1}INTRODUCCIÓN}{4}{section.1}\protected@file@percent }
\@writefile{toc}{\contentsline {section}{\numberline {2}OBJETIVO}{5}{section.2}\protected@file@percent }
\@writefile{toc}{\contentsline {subsection}{\numberline {2.1}OBJETIVOS PARTICULARES}{5}{subsection.2.1}\protected@file@percent }
\citation{semarnat}
\citation{semarnat}
\citation{arreguin2011}
\citation{voituriez2003}
\@writefile{toc}{\contentsline {section}{\numberline {3}ANTECEDENTES}{6}{section.3}\protected@file@percent }
\@writefile{toc}{\contentsline {subsection}{\numberline {3.1}De la Pesca}{6}{subsection.3.1}\protected@file@percent }
\citation{inecc2018}
\citation{inecc2018}
\citation{inecc2016}
\citation{munnich1991study}
\citation{wang20001997}
\citation{palmer1999}
\@writefile{toc}{\contentsline {subsection}{\numberline {3.2}Del clima y la atmósfera}{7}{subsection.3.2}\protected@file@percent }
\@writefile{toc}{\contentsline {subsection}{\numberline {3.3}CICLONES TROPICALES}{7}{subsection.3.3}\protected@file@percent }
\@writefile{toc}{\contentsline {subsection}{\numberline {3.4}ENOS}{7}{subsection.3.4}\protected@file@percent }
\citation{newman2018networks}
\citation{perez2010}
\@writefile{toc}{\contentsline {section}{\numberline {4}PROPUESTA. EN CONTEXTO DE LA TEORÍA DE SISTEMAS COMPLEJOS}{8}{section.4}\protected@file@percent }
\@writefile{toc}{\contentsline {subsection}{\numberline {4.1}DESCRIPCIÓN DE LOS ELEMENTOS DEL SISTEMA}{8}{subsection.4.1}\protected@file@percent }
\@writefile{toc}{\contentsline {section}{\numberline {5}HIPÓTESIS}{9}{section.5}\protected@file@percent }
\@writefile{toc}{\contentsline {section}{\numberline {6}MATERIALES Y MÉTODOS}{9}{section.6}\protected@file@percent }
\@writefile{toc}{\contentsline {subsection}{\numberline {6.1}BASE DE DATOS}{9}{subsection.6.1}\protected@file@percent }
\@writefile{toc}{\contentsline {subsection}{\numberline {6.2}CONSTRUCCIÓN DEL SISTEMA}{9}{subsection.6.2}\protected@file@percent }
\@writefile{lof}{\contentsline {figure}{\numberline {1}{\ignorespaces {\bf  Sistema PFMCL.} Se compone de tres elementos: pesquerías, fenómenos meteorológicos de corta duración y fenómenos meteorológicos de larga duración.}}{10}{figure.1}\protected@file@percent }
\newlabel{fig:sistema1}{{1}{10}{{\bf Sistema PFMCL.} Se compone de tres elementos: pesquerías, fenómenos meteorológicos de corta duración y fenómenos meteorológicos de larga duración}{figure.1}{}}
\@writefile{lof}{\contentsline {figure}{\numberline {2}{\ignorespaces {\bf  elementop} Las variables que le pertenecen: Camarón, Atún, Mojarra, Mero, Ostión y Sardina.}}{11}{figure.2}\protected@file@percent }
\newlabel{fig:elementop}{{2}{11}{{\bf elementop} Las variables que le pertenecen: Camarón, Atún, Mojarra, Mero, Ostión y Sardina}{figure.2}{}}
\@writefile{toc}{\contentsline {subsection}{\numberline {6.3}REGLA DE CORRESPONDENCIA}{11}{subsection.6.3}\protected@file@percent }
\@writefile{lof}{\contentsline {figure}{\numberline {3}{\ignorespaces {\bf  Elemento FMC} Los fenómenos meteorológicos cortos se encuentran clasificados de acuerdo a sus intensidades por el daño que provocan según la escala de Saffir-Simpsonson: Depresión tropical, Tormenta tropical, Huracán tipo 1, Huracán tipo 2, Huracán tipo 3, Huracán tipo 4 y Huracán tipo 5 tanto en el Pacífico como en el Atlántico.}}{12}{figure.3}\protected@file@percent }
\newlabel{fig:elementomc}{{3}{12}{{\bf Elemento FMC} Los fenómenos meteorológicos cortos se encuentran clasificados de acuerdo a sus intensidades por el daño que provocan según la escala de Saffir-Simpsonson: Depresión tropical, Tormenta tropical, Huracán tipo 1, Huracán tipo 2, Huracán tipo 3, Huracán tipo 4 y Huracán tipo 5 tanto en el Pacífico como en el Atlántico}{figure.3}{}}
\@writefile{toc}{\contentsline {section}{\numberline {7}ANÁLISIS}{12}{section.7}\protected@file@percent }
\@writefile{toc}{\contentsline {subsection}{\numberline {7.1}CONSTRUCCIÓN DE REDES}{12}{subsection.7.1}\protected@file@percent }
\@writefile{lof}{\contentsline {figure}{\numberline {4}{\ignorespaces {\bf  Elemento FML} Se distribuye en las variables que comprenden las dos fases del ENOS. La Niña: La Niña strong (LNF), La Niña medium (LNM) y La Niña weak (LND); El Niño: El Niño super strong (ENSF), El niño strong (ENF), El Niño medium (ENM) y El Niño weak (END).}}{13}{figure.4}\protected@file@percent }
\newlabel{fig:elementoml}{{4}{13}{{\bf Elemento FML} Se distribuye en las variables que comprenden las dos fases del ENOS. La Niña: La Niña strong (LNF), La Niña medium (LNM) y La Niña weak (LND); El Niño: El Niño super strong (ENSF), El niño strong (ENF), El Niño medium (ENM) y El Niño weak (END)}{figure.4}{}}
\@writefile{toc}{\contentsline {section}{\numberline {8}RED DEL SISTEMA PFMCL-SPEARMAN}{13}{section.8}\protected@file@percent }
\bibdata{pbib}
\@writefile{toc}{\contentsline {section}{\numberline {9}RED DEL SISTEMA PFMCL-IM}{14}{section.9}\protected@file@percent }
\@writefile{toc}{\contentsline {section}{\numberline {10}CONCLUSIONES}{14}{section.10}\protected@file@percent }
