\relax 
\providecommand\hyper@newdestlabel[2]{}
\bibstyle{unsrt}
\providecommand\HyperFirstAtBeginDocument{\AtBeginDocument}
\HyperFirstAtBeginDocument{\ifx\hyper@anchor\@undefined
\global\let\oldcontentsline\contentsline
\gdef\contentsline#1#2#3#4{\oldcontentsline{#1}{#2}{#3}}
\global\let\oldnewlabel\newlabel
\gdef\newlabel#1#2{\newlabelxx{#1}#2}
\gdef\newlabelxx#1#2#3#4#5#6{\oldnewlabel{#1}{{#2}{#3}}}
\AtEndDocument{\ifx\hyper@anchor\@undefined
\let\contentsline\oldcontentsline
\let\newlabel\oldnewlabel
\fi}
\fi}
\global\let\hyper@last\relax 
\gdef\HyperFirstAtBeginDocument#1{#1}
\providecommand\HyField@AuxAddToFields[1]{}
\providecommand\HyField@AuxAddToCoFields[2]{}
\bibstyle{plos2015}
\citation{martinez2014}
\citation{perez2010}
\citation{semarnat}
\citation{cisneros}
\citation{sectoralimentario}
\citation{anuariopesca2017}
\citation{biogob}
\citation{anuariopesca2017}
\citation{meinshausen2009}
\citation{fao2015}
\citation{noaa2019}
\citation{uhrin2016}
\@writefile{lof}{\contentsline {figure}{\numberline {1}{\ignorespaces {\bf  Bold the figure title.} Figure caption text here, please use this space for the figure panel descriptions instead of using subfigure commands. A: Lorem ipsum dolor sit amet. B: Consectetur adipiscing elit.\relax }}{2}{figure.caption.5}\protected@file@percent }
\providecommand*\caption@xref[2]{\@setref\relax\@undefined{#1}}
\newlabel{Maxwell-conceptual-model}{{1}{2}{{\bf Bold the figure title.} Figure caption text here, please use this space for the figure panel descriptions instead of using subfigure commands. A: Lorem ipsum dolor sit amet. B: Consectetur adipiscing elit.\relax }{figure.caption.5}{}}
\citation{bib3}
\@writefile{lot}{\contentsline {table}{\numberline {1}{\ignorespaces  {\bf  Table caption Nulla mi mi, venenatis sed ipsum varius, volutpat euismod diam.}\relax }}{3}{table.caption.7}\protected@file@percent }
\newlabel{table1}{{1}{3}{{\bf Table caption Nulla mi mi, venenatis sed ipsum varius, volutpat euismod diam.}\relax }{table.caption.7}{}}
\bibdata{pbib}
\newlabel{S1_Fig}{{}{4}{S1 Fig}{section*.14}{}}
\newlabel{S2_Fig}{{}{4}{S2 Fig}{section*.15}{}}
\newlabel{S1_File}{{}{4}{S1 File}{section*.16}{}}
\newlabel{S1_Video}{{}{4}{S1 Video}{section*.17}{}}
\newlabel{S1_Appendix}{{}{4}{S1 Appendix}{section*.18}{}}
\newlabel{S1_Table}{{}{4}{S1 Table}{section*.19}{}}
\newlabel{LastPage}{{}{4}{}{page.4}{}}
\xdef\lastpage@lastpage{4}
\xdef\lastpage@lastpageHy{4}
